MIPS-32 IMPLEMENTATION USING VERILOG/UART Verification using system Verilog/dump.vcd
$date
Tue Aug 22 01:51:48 2023
$end
$version
Riviera-PRO Version 2022.04.117.8517
$end
$timescale
1 ns
$end

$scope module tb $end

$scope module vif $end
$var reg 1 ! clk $end
$var reg 1 " uclktx $end
$var reg 1 # uclkrx $end
$var reg 1 $ rst $end
$var reg 1 % rx $end
$var reg 8 & dintx [7:0] $end
$var reg 1 ' send $end
$var reg 1 ( tx $end
$var reg 8 ) doutrx [7:0] $end
$var reg 1 * donetx $end
$var reg 1 + donerx $end
$upscope $end


$scope module dut $end
$var wire 1 , clk $end
$var wire 1 - rst $end
$var wire 1 . rx $end
$var wire 8 / dintx [7:0] $end
$var wire 1 0 send $end
$var wire 1 1 tx $end
$var wire 8 2 doutrx [7:0] $end
$var wire 1 3 donetx $end
$var wire 1 4 donerx $end
$var parameter 32 5 clk_freq [31:0] $end
$var parameter 32 6 baud_rate [31:0] $end

$scope module utx $end
$var wire 1 7 clk $end
$var wire 1 8 rst $end
$var wire 1 9 send $end
$var wire 8 : tx_data [7:0] $end
$var reg 1 ; tx $end
$var reg 1 < donetx $end
$var integer 32 = count $end
$var integer 32 > counts $end
$var reg 2 ? state $end
$var reg 1 @ uclk $end
$var reg 8 A din [7:0] $end
$var parameter 32 B clk_freq [31:0] $end
$var parameter 32 C baud_rate [31:0] $end
$var parameter 32 D clkcount [31:0] $end
$upscope $end


$scope module rtx $end
$var wire 1 E clk $end
$var wire 1 F rst $end
$var wire 1 G rx $end
$var reg 1 H done $end
$var reg 8 I rxdata [7:0] $end
$var integer 32 J count $end
$var integer 32 K counts $end
$var reg 2 L state $end
$var reg 1 M uclk $end
$var parameter 32 N clk_freq [31:0] $end
$var parameter 32 O baud_rate [31:0] $end
$var parameter 32 P clkcount [31:0] $end
$upscope $end

$upscope $end

$upscope $end

$enddefinitions $end
$dumpvars
0!
0"
0#
1$
1%
b0 &
0'
1(
b0 )
0*
0+
0,
1-
1.
b0 /
00
x1
bx 2
x3
x4
b11110100001001000000 5
b10010110000000 6
07
18
09
b0 :
x;
x<
b0 =
b0 >
b0 ?
0@
bx A
b11110100001001000000 B
b10010110000000 C
b1101000 D
0E
1F
1G
xH
bx I
b0 J
b0 K
b0 L
0M
b11110100001001000000 N
b10010110000000 O
b1101000 P
$end
#10
1!
1,
17
1E
b1 =
b1 J
#20
0!
0,
07
0E
#30
1!
1,
17
1E
b10 =
b10 J
#40
0!
0,
07
0E
#50
1!
1,
17
1E
b11 =
b11 J
#60
0!
0,
07
0E
#70
1!
1,
17
1E
b100 =
b100 J
#80
0!
0,
07
0E
#90
1!
1,
17
1E
b101 =
b101 J
#100
0!
0,
07
0E
#110
1!
1,
17
1E
b110 =
b110 J
#120
0!
0,
07
0E
#130
1!
1,
17
1E
b111 =
b111 J
#140
0!
0,
07
0E
#150
1!
1,
17
1E
b1000 =
b1000 J
#160
0!
0,
07
0E
#170
1!
1,
17
1E
b1001 =
b1001 J
#180
0!
0,
07
0E
#190
1!
1,
17
1E
b1010 =
b1010 J
#200
0!
0,
07
0E
#210
1!
1,
17
1E
b1011 =
b1011 J
#220
0!
0,
07
0E
#230
1!
1,
17
1E
b1100 =
b1100 J
#240
0!
0,
07
0E
#250
1!
1,
17
1E
b1101 =
b1101 J
#260
0!
0,
07
0E
#270
1!
1,
17
1E
b1110 =
b1110 J
#280
0!
0,
07
0E
#290
1!
1,
17
1E
b1111 =
b1111 J
#300
0!
0,
07
0E
#310
1!
1,
17
1E
b10000 =
b10000 J
#320
0!
0,
07
0E
#330
1!
1,
17
1E
b10001 =
b10001 J
#340
0!
0,
07
0E
#350
1!
1,
17
1E
b10010 =
b10010 J
#360
0!
0,
07
0E
#370
1!
1,
17
1E
b10011 =
b10011 J
#380
0!
0,
07
0E
#390
1!
1,
17
1E
b10100 =
b10100 J
#400
0!
0,
07
0E
#410
1!
1,
17
1E
b10101 =
b10101 J
#420
0!
0,
07
0E
#430
1!
1,
17
1E
b10110 =
b10110 J
#440
0!
0,
07
0E
#450
1!
1,
17
1E
b10111 =
b10111 J
#460
0!
0,
07
0E
#470
1!
1,
17
1E
b11000 =
b11000 J
#480
0!
0,
07
0E
#490
1!
1,
17
1E
b11001 =
b11001 J
#500
0!
0,
07
0E
#510
1!
1,
17
1E
b11010 =
b11010 J
#520
0!
0,
07
0E
#530
1!
1,
17
1E
b11011 =
b11011 J
#540
0!
0,
07
0E
#550
1!
1,
17
1E
b11100 =
b11100 J
#560
0!
0,
07
0E
#570
1!
1,
17
1E
b11101 =
b11101 J
#580
0!
0,
07
0E
#590
1!
1,
17
1E
b11110 =
b11110 J
#600
0!
0,
07
0E
#610
1!
1,
17
1E
b11111 =
b11111 J
#620
0!
0,
07
0E
#630
1!
1,
17
1E
b100000 =
b100000 J
#640
0!
0,
07
0E
#650
1!
1,
17
1E
b100001 =
b100001 J
#660
0!
0,
07
0E
#670
1!
1,
17
1E
b100010 =
b100010 J
#680
0!
0,
07
0E
#690
1!
1,
17
1E
b100011 =
b100011 J
#700
0!
0,
07
0E
#710
1!
1,
17
1E
b100100 =
b100100 J
#720
0!
0,
07
0E
#730
1!
1,
17
1E
b100101 =
b100101 J
#740
0!
0,
07
0E
#750
1!
1,
17
1E
b100110 =
b100110 J
#760
0!
0,
07
0E
#770
1!
1,
17
1E
b100111 =
b100111 J
#780
0!
0,
07
0E
#790
1!
1,
17
1E
b101000 =
b101000 J
#800
0!
0,
07
0E
#810
1!
1,
17
1E
b101001 =
b101001 J
#820
0!
0,
07
0E
#830
1!
1,
17
1E
b101010 =
b101010 J
#840
0!
0,
07
0E
#850
1!
1,
17
1E
b101011 =
b101011 J
#860
0!
0,
07
0E
#870
1!
1,
17
1E
b101100 =
b101100 J
#880
0!
0,
07
0E
#890
1!
1,
17
1E
b101101 =
b101101 J
#900
0!
0,
07
0E
#910
1!
1,
17
1E
b101110 =
b101110 J
#920
0!
0,
07
0E
#930
1!
1,
17
1E
b101111 =
b101111 J
#940
0!
0,
07
0E
#950
1!
1,
17
1E
b110000 =
b110000 J
#960
0!
0,
07
0E
#970
1!
1,
17
1E
b110001 =
b110001 J
#980
0!
0,
07
0E
#990
1!
1,
17
1E
b110010 =
b110010 J
#1000
0!
0,
07
0E
#1010
1!
1,
17
1E
b110011 =
b110011 J
#1020
0!
0,
07
0E
#1030
1!
1,
17
1E
b110100 =
b110100 J
#1040
0!
0,
07
0E
#1050
1!
1,
17
1E
1@
1M
1"
1#
b0 =
b0 J
b0 I
0H
04
b0 2
b0 )
#1060
0!
0,
07
0E
#1070
1!
1,
17
1E
b1 =
b1 J
#1080
0!
0,
07
0E
#1090
1!
1,
17
1E
b10 =
b10 J
#1100
0!
0,
07
0E
#1110
1!
1,
17
1E
b11 =
b11 J
#1120
0!
0,
07
0E
#1130
1!
1,
17
1E
b100 =
b100 J
#1140
0!
0,
07
0E
#1150
1!
1,
17
1E
b101 =
b101 J
#1160
0!
0,
07
0E
#1170
1!
1,
17
1E
b110 =
b110 J
#1180
0!
0,
07
0E
#1190
1!
1,
17
1E
b111 =
b111 J
#1200
0!
0,
07
0E
#1210
1!
1,
17
1E
b1000 =
b1000 J
#1220
0!
0,
07
0E
#1230
1!
1,
17
1E
b1001 =
b1001 J
#1240
0!
0,
07
0E
#1250
1!
1,
17
1E
b1010 =
b1010 J
#1260
0!
0,
07
0E
#1270
1!
1,
17
1E
b1011 =
b1011 J
#1280
0!
0,
07
0E
#1290
1!
1,
17
1E
b1100 =
b1100 J
#1300
0!
0,
07
0E
#1310
1!
1,
17
1E
b1101 =
b1101 J
#1320
0!
0,
07
0E
#1330
1!
1,
17
1E
b1110 =
b1110 J
#1340
0!
0,
07
0E
#1350
1!
1,
17
1E
b1111 =
b1111 J
#1360
0!
0,
07
0E
#1370
1!
1,
17
1E
b10000 =
b10000 J
#1380
0!
0,
07
0E
#1390
1!
1,
17
1E
b10001 =
b10001 J
#1400
0!
0,
07
0E
#1410
1!
1,
17
1E
b10010 =
b10010 J
#1420
0!
0,
07
0E
#1430
1!
1,
17
1E
b10011 =
b10011 J
#1440
0!
0,
07
0E
#1450
1!
1,
17
1E
b10100 =
b10100 J
#1460
0!
0,
07
0E
#1470
1!
1,
17
1E
b10101 =
b10101 J
#1480
0!
0,
07
0E
#1490
1!
1,
17
1E
b10110 =
b10110 J
#1500
0!
0,
07
0E
#1510
1!
1,
17
1E
b10111 =
b10111 J
#1520
0!
0,
07
0E
#1530
1!
1,
17
1E
b11000 =
b11000 J
#1540
0!
0,
07
0E
#1550
1!
1,
17
1E
b11001 =
b11001 J
#1560
0!
0,
07
0E
#1570
1!
1,
17
1E
b11010 =
b11010 J
#1580
0!
0,
07
0E
#1590
1!
1,
17
1E
b11011 =
b11011 J
#1600
0!
0,
07
0E
#1610
1!
1,
17
1E
b11100 =
b11100 J
#1620
0!
0,
07
0E
#1630
1!
1,
17
1E
b11101 =
b11101 J
#1640
0!
0,
07
0E
#1650
1!
1,
17
1E
b11110 =
b11110 J
#1660
0!
0,
07
0E
#1670
1!
1,
17
1E
b11111 =
b11111 J
#1680
0!
0,
07
0E
#1690
1!
1,
17
1E
b100000 =
b100000 J
#1700
0!
0,
07
0E
#1710
1!
1,
17
1E
b100001 =
b100001 J
#1720
0!
0,
07
0E
#1730
1!
1,
17
1E
b100010 =
b100010 J
#1740
0!
0,
07
0E
#1750
1!
1,
17
1E
b100011 =
b100011 J
#1760
0!
0,
07
0E
#1770
1!
1,
17
1E
b100100 =
b100100 J
#1780
0!
0,
07
0E
#1790
1!
1,
17
1E
b100101 =
b100101 J
#1800
0!
0,
07
0E
#1810
1!
1,
17
1E
b100110 =
b100110 J
#1820
0!
0,
07
0E
#1830
1!
1,
17
1E
b100111 =
b100111 J
#1840
0!
0,
07
0E
#1850
1!
1,
17
1E
b101000 =
b101000 J
#1860
0!
0,
07
0E
#1870
1!
1,
17
1E
b101001 =
b101001 J
#1880
0!
0,
07
0E
#1890
1!
1,
17
1E
b101010 =
b101010 J
#1900
0!
0,
07
0E
#1910
1!
1,
17
1E
b101011 =
b101011 J
#1920
0!
0,
07
0E
#1930
1!
1,
17
1E
b101100 =
b101100 J
#1940
0!
0,
07
0E
#1950
1!
1,
17
1E
b101101 =
b101101 J
#1960
0!
0,
07
0E
#1970
1!
1,
17
1E
b101110 =
b101110 J
#1980
0!
0,
07
0E
#1990
1!
1,
17
1E
b101111 =
b101111 J
#2000
0!
0,
07
0E
#2010
1!
1,
17
1E
b110000 =
b110000 J
#2020
0!
0,
07
0E
#2030
1!
1,
17
1E
b110001 =
b110001 J
#2040
0!
0,
07
0E
#2050
1!
1,
17
1E
b110010 =
b110010 J
#2060
0!
0,
07
0E
#2070
1!
1,
17
1E
b110011 =
b110011 J
#2080
0!
0,
07
0E
#2090
1!
1,
17
1E
b110100 =
b110100 J
#2100
0!
0,
07
0E
#2110
1!
1,
17
1E
0@
0M
0"
0#
b0 =
b0 J
#2120
0!
0,
07
0E
#2130
1!
1,
17
1E
b1 =
b1 J
#2140
0!
0,
07
0E
#2150
1!
1,
17
1E
b10 =
b10 J
#2160
0!
0,
07
0E
#2170
1!
1,
17
1E
b11 =
b11 J
#2180
0!
0,
07
0E
#2190
1!
1,
17
1E
b100 =
b100 J
#2200
0!
0,
07
0E
#2210
1!
1,
17
1E
b101 =
b101 J
#2220
0!
0,
07
0E
#2230
1!
1,
17
1E
b110 =
b110 J
#2240
0!
0,
07
0E
#2250
1!
1,
17
1E
b111 =
b111 J
#2260
0!
0,
07
0E
#2270
1!
1,
17
1E
b1000 =
b1000 J
#2280
0!
0,
07
0E
#2290
1!
1,
17
1E
b1001 =
b1001 J
#2300
0!
0,
07
0E
#2310
1!
1,
17
1E
b1010 =
b1010 J
#2320
0!
0,
07
0E
#2330
1!
1,
17
1E
b1011 =
b1011 J
#2340
0!
0,
07
0E
#2350
1!
1,
17
1E
b1100 =
b1100 J
#2360
0!
0,
07
0E
#2370
1!
1,
17
1E
b1101 =
b1101 J
#2380
0!
0,
07
0E
#2390
1!
1,
17
1E
b1110 =
b1110 J
#2400
0!
0,
07
0E
#2410
1!
1,
17
1E
b1111 =
b1111 J
#2420
0!
0,
07
0E
#2430
1!
1,
17
1E
b10000 =
b10000 J
#2440
0!
0,
07
0E
#2450
1!
1,
17
1E
b10001 =
b10001 J
#2460
0!
0,
07
0E
#2470
1!
1,
17
1E
b10010 =
b10010 J
#2480
0!
0,
07
0E
#2490
1!
1,
17
1E
b10011 =
b10011 J
#2500
0!
0,
07
0E
#2510
1!
1,
17
1E
b10100 =
b10100 J
#2520
0!
0,
07
0E
#2530
1!
1,
17
1E
b10101 =
b10101 J
#2540
0!
0,
07
0E
#2550
1!
1,
17
1E
b10110 =
b10110 J
#2560
0!
0,
07
0E
#2570
1!
1,
17
1E
b10111 =
b10111 J
#2580
0!
0,
07
0E
#2590
1!
1,
17
1E
b11000 =
b11000 J
#2600
0!
0,
07
0E
#2610
1!
1,
17
1E
b11001 =
b11001 J
#2620
0!
0,
07
0E
#2630
1!
1,
17
1E
b11010 =
b11010 J
#2640
0!
0,
07
0E
#2650
1!
1,
17
1E
b11011 =
b11011 J
#2660
0!
0,
07
0E
#2670
1!
1,
17
1E
b11100 =
b11100 J
#2680
0!
0,
07
0E
#2690
1!
1,
17
1E
b11101 =
b11101 J
#2700
0!
0,
07
0E
#2710
1!
1,
17
1E
b11110 =
b11110 J
#2720
0!
0,
07
0E
#2730
1!
1,
17
1E
b11111 =
b11111 J
#2740
0!
0,
07
0E
#2750
1!
1,
17
1E
b100000 =
b100000 J
#2760
0!
0,
07
0E
#2770
1!
1,
17
1E
b100001 =
b100001 J
#2780
0!
0,
07
0E
#2790
1!
1,
17
1E
b100010 =
b100010 J
#2800
0!
0,
07
0E
#2810
1!
1,
17
1E
b100011 =
b100011 J
#2820
0!
0,
07
0E
#2830
1!
1,
17
1E
b100100 =
b100100 J
#2840
0!
0,
07
0E
#2850
1!
1,
17
1E
b100101 =
b100101 J
#2860
0!
0,
07
0E
#2870
1!
1,
17
1E
b100110 =
b100110 J
#2880
0!
0,
07
0E
#2890
1!
1,
17
1E
b100111 =
b100111 J
#2900
0!
0,
07
0E
#2910
1!
1,
17
1E
b101000 =
b101000 J
#2920
0!
0,
07
0E
#2930
1!
1,
17
1E
b101001 =
b101001 J
#2940
0!
0,
07
0E
#2950
1!
1,
17
1E
b101010 =
b101010 J
#2960
0!
0,
07
0E
#2970
1!
1,
17
1E
b101011 =
b101011 J
#2980
0!
0,
07
0E
#2990
1!
1,
17
1E
b101100 =
b101100 J
#3000
0!
0,
07
0E
#3010
1!
1,
17
1E
b101101 =
b101101 J
#3020
0!
0,
07
0E
#3030
1!
1,
17
1E
b101110 =
b101110 J
#3040
0!
0,
07
0E
#3050
1!
1,
17
1E
b101111 =
b101111 J
#3060
0!
0,
07
0E
#3070
1!
1,
17
1E
b110000 =
b110000 J
#3080
0!
0,
07
0E
#3090
1!
1,
17
1E
b110001 =
b110001 J
#3100
0!
0,
07
0E
#3110
1!
1,
17
1E
b110010 =
b110010 J
#3120
0!
0,
07
0E
#3130
1!
1,
17
1E
b110011 =
b110011 J
#3140
0!
0,
07
0E
#3150
1!
1,
17
1E
b110100 =
b110100 J
#3160
0!
0,
07
0E
#3170
1!
1,
17
1E
1@
1M
1"
1#
b0 =
b0 J
#3180
0!
0,
07
0E
#3190
1!
1,
17
1E
b1 =
b1 J
#3200
0!
0,
07
0E
#3210
1!
1,
17
1E
b10 =
b10 J
#3220
0!
0,
07
0E
#3230
1!
1,
17
1E
b11 =
b11 J
#3240
0!
0,
07
0E
#3250
1!
1,
17
1E
b100 =
b100 J
#3260
0!
0,
07
0E
#3270
1!
1,
17
1E
b101 =
b101 J
#3280
0!
0,
07
0E
#3290
1!
1,
17
1E
b110 =
b110 J
#3300
0!
0,
07
0E
#3310
1!
1,
17
1E
b111 =
b111 J
#3320
0!
0,
07
0E
#3330
1!
1,
17
1E
b1000 =
b1000 J
#3340
0!
0,
07
0E
#3350
1!
1,
17
1E
b1001 =
b1001 J
#3360
0!
0,
07
0E
#3370
1!
1,
17
1E
b1010 =
b1010 J
#3380
0!
0,
07
0E
#3390
1!
1,
17
1E
b1011 =
b1011 J
#3400
0!
0,
07
0E
#3410
1!
1,
17
1E
b1100 =
b1100 J
#3420
0!
0,
07
0E
#3430
1!
1,
17
1E
b1101 =
b1101 J
#3440
0!
0,
07
0E
#3450
1!
1,
17
1E
b1110 =
b1110 J
#3460
0!
0,
07
0E
#3470
1!
1,
17
1E
b1111 =
b1111 J
#3480
0!
0,
07
0E
#3490
1!
1,
17
1E
b10000 =
b10000 J
#3500
0!
0,
07
0E
#3510
1!
1,
17
1E
b10001 =
b10001 J
#3520
0!
0,
07
0E
#3530
1!
1,
17
1E
b10010 =
b10010 J
#3540
0!
0,
07
0E
#3550
1!
1,
17
1E
b10011 =
b10011 J
#3560
0!
0,
07
0E
#3570
1!
1,
17
1E
b10100 =
b10100 J
#3580
0!
0,
07
0E
#3590
1!
1,
17
1E
b10101 =
b10101 J
#3600
0!
0,
07
0E
#3610
1!
1,
17
1E
b10110 =
b10110 J
#3620
0!
0,
07
0E
#3630
1!
1,
17
1E
b10111 =
b10111 J
#3640
0!
0,
07
0E
#3650
1!
1,
17
1E
b11000 =
b11000 J
#3660
0!
0,
07
0E
#3670
1!
1,
17
1E
b11001 =
b11001 J
#3680
0!
0,
07
0E
#3690
1!
1,
17
1E
b11010 =
b11010 J
#3700
0!
0,
07
0E
#3710
1!
1,
17
1E
b11011 =
b11011 J
#3720
0!
0,
07
0E
#3730
1!
1,
17
1E
b11100 =
b11100 J
#3740
0!
0,
07
0E
#3750
1!
1,
17
1E
b11101 =
b11101 J
#3760
0!
0,
07
0E
#3770
1!
1,
17
1E
b11110 =
b11110 J
#3780
0!
0,
07
0E
#3790
1!
1,
17
1E
b11111 =
b11111 J
#3800
0!
0,
07
0E
#3810
1!
1,
17
1E
b100000 =
b100000 J
#3820
0!
0,
07
0E
#3830
1!
1,
17
1E
b100001 =
b100001 J
#3840
0!
0,
07
0E
#3850
1!
1,
17
1E
b100010 =
b100010 J
#3860
0!
0,
07
0E
#3870
1!
1,
17
1E
b100011 =
b100011 J
#3880
0!
0,
07
0E
#3890
1!
1,
17
1E
b100100 =
b100100 J
#3900
0!
0,
07
0E
#3910
1!
1,
17
1E
b100101 =
b100101 J
#3920
0!
0,
07
0E
#3930
1!
1,
17
1E
b100110 =
b100110 J
#3940
0!
0,
07
0E
#3950
1!
1,
17
1E
b100111 =
b100111 J
#3960
0!
0,
07
0E
#3970
1!
1,
17
1E
b101000 =
b101000 J
#3980
0!
0,
07
0E
#3990
1!
1,
17
1E
b101001 =
b101001 J
#4000
0!
0,
07
0E
#4010
1!
1,
17
1E
b101010 =
b101010 J
#4020
0!
0,
07
0E
#4030
1!
1,
17
1E
b101011 =
b101011 J
#4040
0!
0,
07
0E
#4050
1!
1,
17
1E
b101100 =
b101100 J
#4060
0!
0,
07
0E
#4070
1!
1,
17
1E
b101101 =
b101101 J
#4080
0!
0,
07
0E
#4090
1!
1,
17
1E
b101110 =
b101110 J
#4100
0!
0,
07
0E
#4110
1!
1,
17
1E
b101111 =
b101111 J
#4120
0!
0,
07
0E
#4130
1!
1,
17
1E
b110000 =
b110000 J
#4140
0!
0,
07
0E
#4150
1!
1,
17
1E
b110001 =
b110001 J
#4160
0!
0,
07
0E
#4170
1!
1,
17
1E
b110010 =
b110010 J
#4180
0!
0,
07
0E
#4190
1!
1,
17
1E
b110011 =
b110011 J
#4200
0!
0,
07
0E
#4210
1!
1,
17
1E
b110100 =
b110100 J
#4220
0!
0,
07
0E
#4230
1!
1,
17
1E
0@
0M
0"
0#
b0 =
b0 J
#4240
0!
0,
07
0E
#4250
1!
1,
17
1E
b1 =
b1 J
#4260
0!
0,
07
0E
#4270
1!
1,
17
1E
b10 =
b10 J
#4280
0!
0,
07
0E
#4290
1!
1,
17
1E
b11 =
b11 J
#4300
0!
0,
07
0E
#4310
1!
1,
17
1E
b100 =
b100 J
#4320
0!
0,
07
0E
#4330
1!
1,
17
1E
b101 =
b101 J
#4340
0!
0,
07
0E
#4350
1!
1,
17
1E
b110 =
b110 J
#4360
0!
0,
07
0E
#4370
1!
1,
17
1E
b111 =
b111 J
#4380
0!
0,
07
0E
#4390
1!
1,
17
1E
b1000 =
b1000 J
#4400
0!
0,
07
0E
#4410
1!
1,
17
1E
b1001 =
b1001 J
#4420
0!
0,
07
0E
#4430
1!
1,
17
1E
b1010 =
b1010 J
#4440
0!
0,
07
0E
#4450
1!
1,
17
1E
b1011 =
b1011 J
#4460
0!
0,
07
0E
#4470
1!
1,
17
1E
b1100 =
b1100 J
#4480
0!
0,
07
0E
#4490
1!
1,
17
1E
b1101 =
b1101 J
#4500
0!
0,
07
0E
#4510
1!
1,
17
1E
b1110 =
b1110 J
#4520
0!
0,
07
0E
#4530
1!
1,
17
1E
b1111 =
b1111 J
#4540
0!
0,
07
0E
#4550
1!
1,
17
1E
b10000 =
b10000 J
#4560
0!
0,
07
0E
#4570
1!
1,
17
1E
b10001 =
b10001 J
#4580
0!
0,
07
0E
#4590
1!
1,
17
1E
b10010 =
b10010 J
#4600
0!
0,
07
0E
#4610
1!
1,
17
1E
b10011 =
b10011 J
#4620
0!
0,
07
0E
#4630
1!
1,
17
1E
b10100 =
b10100 J
#4640
0!
0,
07
0E
#4650
1!
1,
17
1E
b10101 =
b10101 J
#4660
0!
0,
07
0E
#4670
1!
1,
17
1E
b10110 =
b10110 J
#4680
0!
0,
07
0E
#4690
1!
1,
17
1E
b10111 =
b10111 J
#4700
0!
0,
07
0E
#4710
1!
1,
17
1E
b11000 =
b11000 J
#4720
0!
0,
07
0E
#4730
1!
1,
17
1E
b11001 =
b11001 J
#4740
0!
0,
07
0E
#4750
1!
1,
17
1E
b11010 =
b11010 J
#4760
0!
0,
07
0E
#4770
1!
1,
17
1E
b11011 =
b11011 J
#4780
0!
0,
07
0E
#4790
1!
1,
17
1E
b11100 =
b11100 J
#4800
0!
0,
07
0E
#4810
1!
1,
17
1E
b11101 =
b11101 J
#4820
0!
0,
07
0E
#4830
1!
1,
17
1E
b11110 =
b11110 J
#4840
0!
0,
07
0E
#4850
1!
1,
17
1E
b11111 =
b11111 J
#4860
0!
0,
07
0E
#4870
1!
1,
17
1E
b100000 =
b100000 J
#4880
0!
0,
07
0E
#4890
1!
1,
17
1E
b100001 =
b100001 J
#4900
0!
0,
07
0E
#4910
1!
1,
17
1E
b100010 =
b100010 J
#4920
0!
0,
07
0E
#4930
1!
1,
17
1E
b100011 =
b100011 J
#4940
0!
0,
07
0E
#4950
1!
1,
17
1E
b100100 =
b100100 J
#4960
0!
0,
07
0E
#4970
1!
1,
17
1E
b100101 =
b100101 J
#4980
0!
0,
07
0E
#4990
1!
1,
17
1E
b100110 =
b100110 J
#5000
0!
0,
07
0E
#5010
1!
1,
17
1E
b100111 =
b100111 J
#5020
0!
0,
07
0E
#5030
1!
1,
17
1E
b101000 =
b101000 J
#5040
0!
0,
07
0E
#5050
1!
1,
17
1E
b101001 =
b101001 J
#5060
0!
0,
07
0E
#5070
1!
1,
17
1E
b101010 =
b101010 J
#5080
0!
0,
07
0E
#5090
1!
1,
17
1E
b101011 =
b101011 J
#5100
0!
0,
07
0E
#5110
1!
1,
17
1E
b101100 =
b101100 J
#5120
0!
0,
07
0E
#5130
1!
1,
17
1E
b101101 =
b101101 J
#5140
0!
0,
07
0E
#5150
1!
1,
17
1E
b101110 =
b101110 J
#5160
0!
0,
07
0E
#5170
1!
1,
17
1E
b101111 =
b101111 J
#5180
0!
0,
07
0E
#5190
1!
1,
17
1E
b110000 =
b110000 J
#5200
0!
0,
07
0E
#5210
1!
1,
17
1E
b110001 =
b110001 J
#5220
0!
0,
07
0E
#5230
1!
1,
17
1E
b110010 =
b110010 J
#5240
0!
0,
07
0E
#5250
1!
1,
17
1E
b110011 =
b110011 J
#5260
0!
0,
07
0E
#5270
1!
1,
17
1E
b110100 =
b110100 J
#5280
0!
0,
07
0E
#5290
1!
1,
17
1E
1@
1M
1"
1#
b0 =
b0 J
#5300
0!
0,
07
0E
#5310
1!
1,
17
1E
b1 =
b1 J
#5320
0!
0,
07
0E
#5330
1!
1,
17
1E
b10 =
b10 J
#5340
0!
0,
07
0E
#5350
1!
1,
17
1E
b11 =
b11 J
#5360
0!
0,
07
0E
#5370
1!
1,
17
1E
b100 =
b100 J
#5380
0!
0,
07
0E
#5390
1!
1,
17
1E
b101 =
b101 J
#5400
0!
0,
07
0E
#5410
1!
1,
17
1E
b110 =
b110 J
#5420
0!
0,
07
0E
#5430
1!
1,
17
1E
b111 =
b111 J
#5440
0!
0,
07
0E
#5450
1!
1,
17
1E
b1000 =
b1000 J
#5460
0!
0,
07
0E
#5470
1!
1,
17
1E
b1001 =
b1001 J
#5480
0!
0,
07
0E
#5490
1!
1,
17
1E
b1010 =
b1010 J
#5500
0!
0,
07
0E
#5510
1!
1,
17
1E
b1011 =
b1011 J
#5520
0!
0,
07
0E
#5530
1!
1,
17
1E
b1100 =
b1100 J
#5540
0!
0,
07
0E
#5550
1!
1,
17
1E
b1101 =
b1101 J
#5560
0!
0,
07
0E
#5570
1!
1,
17
1E
b1110 =
b1110 J
#5580
0!
0,
07
0E
#5590
1!
1,
17
1E
b1111 =
b1111 J
#5600
0!
0,
07
0E
#5610
1!
1,
17
1E
b10000 =
b10000 J
#5620
0!
0,
07
0E
#5630
1!
1,
17
1E
b10001 =
b10001 J
#5640
0!
0,
07
0E
#5650
1!
1,
17
1E
b10010 =
b10010 J
#5660
0!
0,
07
0E
#5670
1!
1,
17
1E
b10011 =
b10011 J
#5680
0!
0,
07
0E
#5690
1!
1,
17
1E
b10100 =
b10100 J
#5700
0!
0,
07
0E
#5710
1!
1,
17
1E
b10101 =
b10101 J
#5720
0!
0,
07
0E
#5730
1!
1,
17
1E
b10110 =
b10110 J
#5740
0!
0,
07
0E
#5750
1!
1,
17
1E
b10111 =
b10111 J
#5760
0!
0,
07
0E
#5770
1!
1,
17
1E
b11000 =
b11000 J
#5780
0!
0,
07
0E
#5790
1!
1,
17
1E
b11001 =
b11001 J
#5800
0!
0,
07
0E
#5810
1!
1,
17
1E
b11010 =
b11010 J
#5820
0!
0,
07
0E
#5830
1!
1,
17
1E
b11011 =
b11011 J
#5840
0!
0,
07
0E
#5850
1!
1,
17
1E
b11100 =
b11100 J
#5860
0!
0,
07
0E
#5870
1!
1,
17
1E
b11101 =
b11101 J
#5880
0!
0,
07
0E
#5890
1!
1,
17
1E
b11110 =
b11110 J
#5900
0!
0,
07
0E
#5910
1!
1,
17
1E
b11111 =
b11111 J
#5920
0!
0,
07
0E
#5930
1!
1,
17
1E
b100000 =
b100000 J
#5940
0!
0,
07
0E
#5950
1!
1,
17
1E
b100001 =
b100001 J
#5960
0!
0,
07
0E
#5970
1!
1,
17
1E
b100010 =
b100010 J
#5980
0!
0,
07
0E
#5990
1!
1,
17
1E
b100011 =
b100011 J
#6000
0!
0,
07
0E
#6010
1!
1,
17
1E
b100100 =
b100100 J
#6020
0!
0,
07
0E
#6030
1!
1,
17
1E
b100101 =
b100101 J
#6040
0!
0,
07
0E
#6050
1!
1,
17
1E
b100110 =
b100110 J
#6060
0!
0,
07
0E
#6070
1!
1,
17
1E
b100111 =
b100111 J
#6080
0!
0,
07
0E
#6090
1!
1,
17
1E
b101000 =
b101000 J
#6100
0!
0,
07
0E
#6110
1!
1,
17
1E
b101001 =
b101001 J
#6120
0!
0,
07
0E
#6130
1!
1,
17
1E
b101010 =
b101010 J
#6140
0!
0,
07
0E
#6150
1!
1,
17
1E
b101011 =
b101011 J
#6160
0!
0,
07
0E
#6170
1!
1,
17
1E
b101100 =
b101100 J
#6180
0!
0,
07
0E
#6190
1!
1,
17
1E
b101101 =
b101101 J
#6200
0!
0,
07
0E
#6210
1!
1,
17
1E
b101110 =
b101110 J
#6220
0!
0,
07
0E
#6230
1!
1,
17
1E
b101111 =
b101111 J
#6240
0!
0,
07
0E
#6250
1!
1,
17
1E
b110000 =
b110000 J
#6260
0!
0,
07
0E
#6270
1!
1,
17
1E
b110001 =
b110001 J
#6280
0!
0,
07
0E
#6290
1!
1,
17
1E
b110010 =
b110010 J
#6300
0!
0,
07
0E
#6310
1!
1,
17
1E
b110011 =
b110011 J
#6320
0!
0,
07
0E
#6330
1!
1,
17
1E
b110100 =
b110100 J
#6340
0!
0,
07
0E
#6350
1!
1,
17
1E
0@
0M
0"
0#
b0 =
b0 J
#6360
0!
0,
07
0E
#6370
1!
1,
17
1E
b1 =
b1 J
#6380
0!
0,
07
0E
#6390
1!
1,
17
1E
b10 =
b10 J
#6400
0!
0,
07
0E
#6410
1!
1,
17
1E
b11 =
b11 J
#6420
0!
0,
07
0E
#6430
1!
1,
17
1E
b100 =
b100 J
#6440
0!
0,
07
0E
#6450
1!
1,
17
1E
b101 =
b101 J
#6460
0!
0,
07
0E
#6470
1!
1,
17
1E
b110 =
b110 J
#6480
0!
0,
07
0E
#6490
1!
1,
17
1E
b111 =
b111 J
#6500
0!
0,
07
0E
#6510
1!
1,
17
1E
b1000 =
b1000 J
#6520
0!
0,
07
0E
#6530
1!
1,
17
1E
b1001 =
b1001 J
#6540
0!
0,
07
0E
#6550
1!
1,
17
1E
b1010 =
b1010 J
#6560
0!
0,
07
0E
#6570
1!
1,
17
1E
b1011 =
b1011 J
#6580
0!
0,
07
0E
#6590
1!
1,
17
1E
b1100 =
b1100 J
#6600
0!
0,
07
0E
#6610
1!
1,
17
1E
b1101 =
b1101 J
#6620
0!
0,
07
0E
#6630
1!
1,
17
1E
b1110 =
b1110 J
